"Disposable Ear Cushion Covers","306G105C"
"Earfoam Holder Ring","172G847C"
"Single Earpad (HME)","306G108C"
"EOS or iON Side Pad (HME)","172G900C"
"CE Clothing Clip","CE-39"
"Vehicle Detector Board","C10678C"
"CE Battery for HME Wireless IQ","CE-6000"
"CE Foam Earpad for Corded Headsets","CE-11"
"HME Battery for Wireless IQ","104034C"
"HME Side Pad for Wireless IQ All-in-One Headset","202G136C"
"HME SP-10 Outbound Speaker","G27942-1C"
"HME Wireless IQ Battery Charger","C11312C"
"HME Wireless IQ Belt-Pac","C11332C"
"HME Wireless IQ Belt-Pac with Pouch","C11332NEW"
"HME Wireless IQ Pouch","107G065C"
"HME Wireless IQ/Odyssey IQ Headstrap","172G724C"
"4J Horn","410-8BK"
"CE 500 Speaker","CE-500"
"CE Battery for HME System 2000/2500","CE-2000"
"CE Microphone Ball","CE-73"
"CE Pouch for HME COM2000","95013"
"CE Pouch with Metal Clip for HME COM2000","BT2000"
"CE Speaker Kit for HME 2000/2500","2000SPKT"
"HME AC2000 Battery Charger (Power supply not included)","C10312"
"CE Battery for HME System 400","CE-423"
"CE Belt," 1.5","107049C"
"CE Speaker Kit for HME 400 System","400SPKT"
"CE Printer Paper for HME System 30 and Fast Track Timers","141"
"CE Printer Paper for HME System 20 Timer","151"
"HME System 30 Printer Replacement","K27054C"
"Vehicle Detector Board (VDB102)","C11098"
"Replacement Printer for HME System 20 Timer","20APRINTER"
"CE 2" Belt","95008"
"CE Battery for Panasonic Attune","CE-3030"
"CE Earpad for Panasonic All-in-One Headsets","12AAA"
"CE Power Supply for Attune and Attune II battery charger","CE-3040"
"Panasonic Attune Battery Charger","WX-Z3040A"
"WHX3050 BATTERY CASE COVER","3DA003405AAA"
"WXCH450 BATTERY CASE COVER","PGKM1096YAD1"
"CE Mic Ball for Panasonic WX-CH2050","099A4"
"CE Side Pad for Panasonic WX-CH2050","103A4"
"CE-2050","CE-2050"
"Panasonic WX-CH2050 Battery Charger","2050CH"
"Panasonic WX-C2020 Battery Charger","2020CH"
"CE Battery for Panasonic WX-C920 and WX-C1020","CE-900"
"CE Mic Ball for Panasonic WX-C1027/520/1020","CE-87"
"CE Pouch with Clip for Panasonic WX-C920/1020","95037"
"CE Power Supply for Panasonic BC-4 Charger","CE-410"
"CE Power Supply for Panasonic BC4I Charger","CE-110"
"Panasonic WX-C1020 Battery Charger","BC4"
"3M G5 battery","78-6911-5123-3"
"CE Earpad for 3M XT1 ," C1060 & G5","CE-155"
"3M Power Supply (14 VAC Battery Charger)","78-8028-9283-2"
"3M XT-1 3-Port Battery Charger","78-6911-4724-9"
"3M XT-1 6-Port Battery Charger","1060BC6RPR"
"3M XT-1 6-Port Battery Charger","78-6911-4725-6"
"3M XT-1 and C1060 OEM Battery","78-6911-4721-5"
"CE Battery for 3M XT-1 & C1060","CE-1060"
"CE Battery Side Pad for XT-1 & C1060","CE-508"
"CE Earpad for 3M XT1 ," C1060 & G5","CE-155"
"Power Supply for 3M XT-1 Base Station","1260"
"3M 1060 6-Port Battery Charger","78-6911-4725-6"
"3M C1060 3-Port Battery Charger","78-6911-4724-9"
"3M C1060 6-port battery charger","1060BC6RPR"
"3M Power Supply (13.5 VDC Base Station)","78-6911-4430-3"
"3M Power Supply (14 VAC Battery Charger)","78-8028-9283-2"
"3M XT-1 and C1060 OEM Battery","78-6911-4721-5"
"CE Battery for 3M XT-1 & C1060","CE-1060"
"CE Battery Side Pad for XT-1 & C1060","CE-508"
"3M C960 3-Port Battery Charger","78-8095-0580-9"
"3M C960 6-Port Battery Charger","78-8095-0581-7"
"3M Power Supply (13.5 VDC Base Station)","78-6911-4430-3"
"CE Battery for 3M C960","CE-960"
"CE C960 Top-pad","CE-507"
"CE Comfort Sidepad for 3M C960","CE-510"
"CE Earpad for 3M C960","CE-105"
"Pedestal Mount","PED1"
"CE 317 External Vehicle Detector","CE-317"
"CE 417-UL External Vehicle Detector","CE-417"
"CE Battery Door for HME System 2000/2500 Belt-Pac","CE-209B"
"CE Battery for Panasonic WX-C920 and WX-C1020","CE-900"
"CE Pouch with Metal Clip for HME COM2000","BT2000"
"CE Preformed Loop (10' Feed)","7605-10"
"CE Preformed Loop (20' Feed)","7605-20"
"CE Preformed Loop (30' Feed)","7605-30"
"CE Speaker Kit for Panasonic Systems","PANSPKT"
"CE Speaker Post - Beige","CE-308"
"CE Speaker Post - Black","CE-308BLK"
"CE-550 Speaker/Microphone","CE-550"
"Saw Cut Loop","CE-316"
"Shotgun Microphone","CE-801"
"Sonar Vehicle Detector","3036-4X"
"Speaker/Microphone Cable 200' (60.96m) Spool","855G001-5C"
"CE Printer Paper for HME System 30 and Fast Track Timers","141"

